%YAML 1.1
%TAG !u! tag:unity3d.com,2011:
--- !u!74 &7400000
AnimationClip:
  m_ObjectHideFlags: 0
  m_CorrespondingSourceObject: {fileID: 0}
  m_PrefabInstance: {fileID: 0}
  m_PrefabAsset: {fileID: 0}
  m_Name: Idle
  serializedVersion: 6
  m_Legacy: 0
  m_Compressed: 0
  m_UseHighQualityCurve: 1
  m_RotationCurves: []
  m_CompressedRotationCurves: []
  m_EulerCurves: []
  m_PositionCurves: []
  m_ScaleCurves: []
  m_FloatCurves: []
  m_PPtrCurves:
  - curve:
    - time: 0
      value: {fileID: 21300000, guid: 333c4a566a9ecee4986617740e6b4b5a, type: 3}
    - time: 0.083333336
      value: {fileID: 21300000, guid: bb27e46b13de7ab4eaf26032e921ee38, type: 3}
    - time: 0.16666667
      value: {fileID: 21300000, guid: 0f3dcc998c9f38540939846785eb34f3, type: 3}
    - time: 0.25
      value: {fileID: 21300000, guid: 07142a1694d4a3042927263136d286a7, type: 3}
    - time: 0.33333334
      value: {fileID: 21300000, guid: 1e3b8277541631c44b8d317246cc12df, type: 3}
    - time: 0.41666666
      value: {fileID: 21300000, guid: 0e419bbaa523a1d438999a99b7a06013, type: 3}
    - time: 0.5
      value: {fileID: 21300000, guid: 47759c760cf8b3144b1df8c0b98d1a2b, type: 3}
    - time: 0.5833333
      value: {fileID: 21300000, guid: 749bb18ae68480f419ffbfb03ae7acf2, type: 3}
    attribute: m_Sprite
    path: 
    classID: 212
    script: {fileID: 0}
  m_SampleRate: 12
  m_WrapMode: 0
  m_Bounds:
    m_Center: {x: 0, y: 0, z: 0}
    m_Extent: {x: 0, y: 0, z: 0}
  m_ClipBindingConstant:
    genericBindings:
    - serializedVersion: 2
      path: 0
      attribute: 0
      script: {fileID: 0}
      typeID: 212
      customType: 23
      isPPtrCurve: 1
    pptrCurveMapping:
    - {fileID: 21300000, guid: 333c4a566a9ecee4986617740e6b4b5a, type: 3}
    - {fileID: 21300000, guid: bb27e46b13de7ab4eaf26032e921ee38, type: 3}
    - {fileID: 21300000, guid: 0f3dcc998c9f38540939846785eb34f3, type: 3}
    - {fileID: 21300000, guid: 07142a1694d4a3042927263136d286a7, type: 3}
    - {fileID: 21300000, guid: 1e3b8277541631c44b8d317246cc12df, type: 3}
    - {fileID: 21300000, guid: 0e419bbaa523a1d438999a99b7a06013, type: 3}
    - {fileID: 21300000, guid: 47759c760cf8b3144b1df8c0b98d1a2b, type: 3}
    - {fileID: 21300000, guid: 749bb18ae68480f419ffbfb03ae7acf2, type: 3}
  m_AnimationClipSettings:
    serializedVersion: 2
    m_AdditiveReferencePoseClip: {fileID: 0}
    m_AdditiveReferencePoseTime: 0
    m_StartTime: 0
    m_StopTime: 0.6666666
    m_OrientationOffsetY: 0
    m_Level: 0
    m_CycleOffset: 0
    m_HasAdditiveReferencePose: 0
    m_LoopTime: 1
    m_LoopBlend: 0
    m_LoopBlendOrientation: 0
    m_LoopBlendPositionY: 0
    m_LoopBlendPositionXZ: 0
    m_KeepOriginalOrientation: 0
    m_KeepOriginalPositionY: 1
    m_KeepOriginalPositionXZ: 0
    m_HeightFromFeet: 0
    m_Mirror: 0
  m_EditorCurves: []
  m_EulerEditorCurves: []
  m_HasGenericRootTransform: 0
  m_HasMotionFloatCurves: 0
  m_Events: []
